Name                    Stmts   Miss  Cover   Missing
-----------------------------------------------------
interface.py              111     32    71%   37-38, 108, 121-129, 134-142, 145-150, 153-156, 159-164
models/itinerary.py        20      0   100%
models/place.py            32      3    91%   27, 30, 55
registration_login.py      52     10    81%   70-79, 85
-----------------------------------------------------
TOTAL                     215     45    79%
